<?xml version="1.0" encoding="UTF-8" standalone="no"?>
<!-- Created with Inkscape (http://www.inkscape.org/) -->
<svg
    xmlns:inkscape="http://www.inkscape.org/namespaces/inkscape"
    xmlns:rdf="http://www.w3.org/1999/02/22-rdf-syntax-ns#"
    xmlns="http://www.w3.org/2000/svg"
    xmlns:sodipodi="http://sodipodi.sourceforge.net/DTD/sodipodi-0.dtd"
    xmlns:cc="http://creativecommons.org/ns#"
    xmlns:xlink="http://www.w3.org/1999/xlink"
    xmlns:dc="http://purl.org/dc/elements/1.1/"
    xmlns:svg="http://www.w3.org/2000/svg"
    xmlns:ns1="http://sozi.baierouge.fr"
    id="svg5421"
    sodipodi:docname="green icon.svg"
    viewBox="0 0 170 170"
    sodipodi:version="0.32"
    version="1.0"
    inkscape:output_extension="org.inkscape.output.svg.inkscape"
    inkscape:version="0.46"
  >
  <defs
      id="defs5423"
    >
    <linearGradient
        id="linearGradient5950"
        y2="149.73"
        gradientUnits="userSpaceOnUse"
        x2="138.14"
        y1="23.201"
        x1="34.207"
        inkscape:collect="always"
      >
      <stop
          id="stop5946"
          style="stop-color:#008000"
          offset="0"
      />
      <stop
          id="stop5954"
          style="stop-color:#000000"
          offset="1"
      />
      <stop
          id="stop5948"
          style="stop-color:#008000"
          offset="1"
      />
    </linearGradient
    >
    <linearGradient
        id="linearGradient6013"
        y2="88.314"
        gradientUnits="userSpaceOnUse"
        x2="63.744"
        y1="2.6132"
        x1="81.791"
        inkscape:collect="always"
      >
      <stop
          id="stop6009"
          style="stop-color:#f2f2f2"
          offset="0"
      />
      <stop
          id="stop6011"
          style="stop-color:#f2f2f2;stop-opacity:0"
          offset="1"
      />
    </linearGradient
    >
  </defs
  >
  <sodipodi:namedview
      id="base"
      bordercolor="#666666"
      inkscape:pageshadow="2"
      guidetolerance="10"
      pagecolor="#ffffff"
      gridtolerance="10000"
      inkscape:window-height="736"
      inkscape:zoom="2.1795527"
      objecttolerance="10"
      showgrid="false"
      borderopacity="1.0"
      inkscape:current-layer="layer1"
      inkscape:cx="130.09284"
      inkscape:cy="100.95161"
      inkscape:window-y="26"
      inkscape:window-x="0"
      inkscape:window-width="1280"
      inkscape:pageopacity="0.0"
      inkscape:document-units="px"
  />
  <g
      id="layer1"
      inkscape:label="Layer 1"
      inkscape:groupmode="layer"
    >
    <path
        id="path5942"
        sodipodi:rx="81.166664"
        sodipodi:ry="80.5"
        style="fill:url(#linearGradient5950)"
        sodipodi:type="arc"
        d="m167.67 85.167a81.167 80.5 0 1 1 -162.34 0 81.167 80.5 0 1 1 162.34 0z"
        transform="translate(-.97328 .64886)"
        sodipodi:cy="85.166664"
        sodipodi:cx="86.5"
    />
    <path
        id="path5431"
        sodipodi:rx="81.166664"
        sodipodi:ry="80.5"
        style="fill:url(#linearGradient5950)"
        sodipodi:type="arc"
        d="m167.67 85.167a81.167 80.5 0 1 1 -162.34 0 81.167 80.5 0 1 1 162.34 0z"
        transform="translate(-.97328 .64886)"
        sodipodi:cy="85.166664"
        sodipodi:cx="86.5"
    />
    <path
        id="path6005"
        style="fill:url(#linearGradient6013)"
        sodipodi:type="inkscape:offset"
        d="m85.5 5.1562c-38.44 0-70.584 26.539-79.031 62.125-1.1593 4.866 1.5162 9.827 6.219 11.531 11.12 4.021 23.605 8.131 35.343 10.532 14.229 2.91 26.099-1.584 38.563-6.782 12.499-5.212 25.616-11.042 42.596-10.718 8.13 0.155 15.54 1.067 22.78 2.218 3.37 0.533 6.78-0.722 9-3.314 2.23-2.592 2.95-6.152 1.91-9.404-10.45-32.553-41.12-56.188-77.38-56.188z"
        inkscape:original="M 85.5 15 C 51.574048 15 23.440169 38.34898 16.03125 69.5625 C 26.943854 73.508083 39.108724 77.490987 50 79.71875 C 61.337055 82.037692 70.510567 78.599033 82.8125 73.46875 C 95.107297 68.341443 110.02651 61.631459 129.375 62 C 138.1396 62.166945 146.03705 63.156071 153.5 64.34375 C 144.33545 35.788882 117.50235 15 85.5 15 z "
        inkscape:radius="9.839179"
    />
  </g
  >
  <metadata
    >
    <rdf:RDF
      >
      <cc:Work
        >
        <dc:format
          >image/svg+xml</dc:format
        >
        <dc:type
            rdf:resource="http://purl.org/dc/dcmitype/StillImage"
        />
        <cc:license
            rdf:resource="http://creativecommons.org/licenses/publicdomain/"
        />
        <dc:publisher
          >
          <cc:Agent
              rdf:about="http://openclipart.org/"
            >
            <dc:title
              >Openclipart</dc:title
            >
          </cc:Agent
          >
        </dc:publisher
        >
        <dc:title
          >Green round Icon ln</dc:title
        >
        <dc:date
          >2008-08-11T11:39:14</dc:date
        >
        <dc:description
          >Green round icon</dc:description
        >
        <dc:source
          >https://openclipart.org/detail/18372/green-round-icon-ln-by-lnasto</dc:source
        >
        <dc:creator
          >
          <cc:Agent
            >
            <dc:title
              >lnasto</dc:title
            >
          </cc:Agent
          >
        </dc:creator
        >
        <dc:subject
          >
          <rdf:Bag
            >
            <rdf:li
              >icon</rdf:li
            >
          </rdf:Bag
          >
        </dc:subject
        >
      </cc:Work
      >
      <cc:License
          rdf:about="http://creativecommons.org/licenses/publicdomain/"
        >
        <cc:permits
            rdf:resource="http://creativecommons.org/ns#Reproduction"
        />
        <cc:permits
            rdf:resource="http://creativecommons.org/ns#Distribution"
        />
        <cc:permits
            rdf:resource="http://creativecommons.org/ns#DerivativeWorks"
        />
      </cc:License
      >
    </rdf:RDF
    >
  </metadata
  >
</svg
>
