<?xml version="1.0" encoding="utf-8"?>
<!-- Generator: Adobe Illustrator 16.0.0, SVG Export Plug-In . SVG Version: 6.00 Build 0)  -->
<!DOCTYPE svg PUBLIC "-//W3C//DTD SVG 1.1//EN" "http://www.w3.org/Graphics/SVG/1.1/DTD/svg11.dtd">
<svg version="1.1" id="图层_1" xmlns="http://www.w3.org/2000/svg" xmlns:xlink="http://www.w3.org/1999/xlink" x="0px" y="0px"
	 width="400.58px" height="400.59px" viewBox="90.001 90 400.58 400.59" enable-background="new 90.001 90 400.58 400.59"
	 xml:space="preserve">
<g opacity="0.7">
	<rect x="90.002" y="90" fill="#335E21" stroke="#000000" stroke-width="1.5" width="400.579" height="400.588"/>
</g>
</svg>
