<?xml version="1.0" encoding="utf-8"?>
<!-- Generator: Adobe Illustrator 16.0.0, SVG Export Plug-In . SVG Version: 6.00 Build 0)  -->
<!DOCTYPE svg PUBLIC "-//W3C//DTD SVG 1.1//EN" "http://www.w3.org/Graphics/SVG/1.1/DTD/svg11.dtd">
<svg version="1.1" xmlns="http://www.w3.org/2000/svg" xmlns:xlink="http://www.w3.org/1999/xlink" x="0px" y="0px"
	 width="580.583px" height="580.59px" viewBox="0 0 580.583 580.59" enable-background="new 0 0 580.583 580.59"
	 xml:space="preserve">
<g id="图层_1">
	<rect fill="#D3F700" stroke="#000000" stroke-width="1.5" width="580.583" height="580.59"/>
	<ellipse fill="#DB1625" stroke="#000000" stroke-width="1.5" cx="281.605" cy="279.428" rx="151.186" ry="151.5"/>
</g>
<g id="图层_2">
</g>
</svg>
