<?xml version="1.0" encoding="UTF-8" standalone="no"?>
<!DOCTYPE svg PUBLIC "-//W3C//DTD SVG 1.1//EN" "http://www.w3.org/Graphics/SVG/1.1/DTD/svg11.dtd">
<!-- 由 Microsoft Visio, SVG Export 生成 A45-温控仪.svg Page-1 -->
<svg xmlns="http://www.w3.org/2000/svg" xmlns:xlink="http://www.w3.org/1999/xlink" xmlns:ev="http://www.w3.org/2001/xml-events"
		xmlns:v="http://schemas.microsoft.com/visio/2003/SVGExtensions/" width="11.6929in" height="16.0354in"
		viewBox="0 0 841.89 1154.55" xml:space="preserve" color-interpolation-filters="sRGB" class="st6">
	<v:documentProperties v:langID="2052" v:metric="true" v:viewMarkup="false">
		<v:userDefs>
			<v:ud v:nameU="msvNoAutoConnect" v:val="VT0(1):26"/>
		</v:userDefs>
	</v:documentProperties>

	<style type="text/css">
	<![CDATA[
		.st1 {fill:#ffffff;stroke:#000000;stroke-linecap:round;stroke-linejoin:round;stroke-width:0.75}
		.st2 {stroke:#000000;stroke-linecap:round;stroke-linejoin:round;stroke-width:0.75}
		.st3 {fill:#000000;font-family:宋体;font-size:1.00001em}
		.st4 {fill:none;stroke:none;stroke-linecap:round;stroke-linejoin:round;stroke-width:0.75}
		.st5 {stroke:#ea700d;stroke-linecap:round;stroke-linejoin:round;stroke-width:3}
		.st6 {fill:none;fill-rule:evenodd;font-size:12px;overflow:visible;stroke-linecap:square;stroke-miterlimit:3}
	]]>
	</style>

	<g v:mID="0" v:index="1" v:groupContext="foregroundPage">
		<title>页-1</title>
		<v:pageProperties v:drawingScale="0.0393701" v:pageScale="0.0393701" v:drawingUnits="24" v:shadowOffsetX="8.50394"
				v:shadowOffsetY="-8.50394"/>
		<g id="shape27-1" v:mID="27" v:groupContext="shape" transform="translate(280.849,-238.857)">
			<title>工作表.27</title>
			<rect x="0" y="992.354" width="162.197" height="162.197" class="st1"/>
		</g>
		<g id="shape13-3" v:mID="13" v:groupContext="shape" transform="translate(123.634,-253.299)">
			<title>工作表.13</title>
			<rect x="0" y="1076.79" width="138.868" height="77.7659" class="st1"/>
		</g>
		<g id="shape1-5" v:mID="1" v:groupContext="shape" transform="translate(1189.22,626.516) rotate(90)">
			<title>工作表.1</title>
			<path d="M0 1154.55 L55.55 1154.55" class="st2"/>
		</g>
		<g id="shape2-8" v:mID="2" v:groupContext="shape" transform="translate(18,-416.941)">
			<title>工作表.2</title>
			<rect x="0" y="1099" width="33.3282" height="55.547" class="st1"/>
		</g>
		<g id="shape3-10" v:mID="3" v:groupContext="shape" transform="translate(29.1094,-455.297)">
			<title>工作表.3</title>
			<path d="M0 1145.8 L7.6 1153.41 L8.75 1154.55" class="st2"/>
		</g>
		<g id="shape4-13" v:mID="4" v:groupContext="shape" transform="translate(28.8406,-455.555)">
			<title>工作表.4</title>
			<path d="M8.48 1146.07 L5.82 1148.73 L0 1154.55" class="st2"/>
		</g>
		<g id="shape5-16" v:mID="5" v:groupContext="shape" transform="translate(-1119.89,737.61) rotate(-90)">
			<title>工作表.5</title>
			<path d="M0 1154.55 L11.11 1154.55" class="st2"/>
		</g>
		<g id="shape6-19" v:mID="6" v:groupContext="shape" transform="translate(-1058.77,1097.16) rotate(-108.726)">
			<title>工作表.6</title>
			<path d="M0 1154.55 L27.68 1154.55" class="st2"/>
		</g>
		<g id="shape7-22" v:mID="7" v:groupContext="shape" transform="translate(20.8884,-215.229)">
			<title>工作表.7</title>
			<path d="M13.87 949.84 L13.87 1008.39 L13.87 1027.61 L13.87 1116.48 C0.5 1118.91 -3.21 1134.92 2.76 1145.37 C7.62 1153.88
						 18.92 1158.69 13.87 1149.81" class="st2"/>
		</g>
		<g id="shape8-25" v:mID="8" v:groupContext="shape" transform="translate(34.7584,-208.862)">
			<title>工作表.8</title>
			<desc>JRQ</desc>
			<v:textBlock v:margins="rect(4,4,4,4)" v:tabSpace="42.5197"/>
			<v:textRect cx="19.4415" cy="1148.07" width="38.89" height="12.961"/>
			<rect x="0" y="1141.59" width="38.8829" height="12.961" class="st1"/>
			<text x="10.44" y="1151.67" class="st3" v:langID="2052"><v:paragraph v:horizAlign="1"/><v:tabList/>JRQ</text>		</g>
		<g id="shape11-28" v:mID="11" v:groupContext="shape" transform="translate(-1057.34,778.566) rotate(-81.8699)">
			<title>工作表.11</title>
			<path d="M0 1142.47 C1.84 1143.1 1.87 1144.64 2.07 1145.98 C3.39 1154.61 12.06 1155.25 20.3 1154.15 C29.57 1152.92 38.31
						 1149.5 39.28 1142.47" class="st2"/>
		</g>
		<g id="shape12-31" v:mID="12" v:groupContext="shape" transform="translate(79.196,-253.299)">
			<title>工作表.12</title>
			<path d="M0 1154.55 L0 1127.07 L77.77 1127.07" class="st2"/>
		</g>
		<g id="shape14-34" v:mID="14" v:groupContext="shape" transform="translate(145.852,-267.742)">
			<title>工作表.14</title>
			<rect x="0" y="1107.89" width="22.2188" height="46.6595" class="st1"/>
		</g>
		<g id="shape15-36" v:mID="15" v:groupContext="shape" transform="translate(152.518,-298.626)">
			<title>工作表.15</title>
			<ellipse cx="4.88814" cy="1150.55" rx="4.88814" ry="3.99939" class="st1"/>
		</g>
		<g id="shape16-38" v:mID="16" v:groupContext="shape" transform="translate(152.518,-277.074)">
			<title>工作表.16</title>
			<ellipse cx="4.88814" cy="1150.55" rx="4.88814" ry="3.99939" class="st1"/>
		</g>
		<g id="shape17-40" v:mID="17" v:groupContext="shape" transform="translate(145.852,-280.781)">
			<title>工作表.17</title>
			<path d="M0 1154.55 L11.11 1154.55" class="st2"/>
		</g>
		<g id="shape18-43" v:mID="18" v:groupContext="shape" transform="translate(156.962,2006.92) rotate(180)">
			<title>工作表.18</title>
			<path d="M0 1154.55 L79.1 1154.55" class="st2"/>
		</g>
		<g id="shape20-46" v:mID="20" v:groupContext="shape" transform="translate(1232.1,626.405) rotate(90)">
			<title>工作表.20</title>
			<path d="M0 1154.55 L55.55 1154.55" class="st2"/>
		</g>
		<g id="shape21-49" v:mID="21" v:groupContext="shape" transform="translate(60.8823,-417.052)">
			<title>工作表.21</title>
			<rect x="0" y="1099" width="33.3282" height="55.547" class="st1"/>
		</g>
		<g id="shape22-51" v:mID="22" v:groupContext="shape" transform="translate(71.9917,-455.408)">
			<title>工作表.22</title>
			<path d="M0 1145.8 L7.6 1153.41 L8.75 1154.55" class="st2"/>
		</g>
		<g id="shape23-54" v:mID="23" v:groupContext="shape" transform="translate(71.723,-455.666)">
			<title>工作表.23</title>
			<path d="M8.48 1146.07 L5.82 1148.73 L0 1154.55" class="st2"/>
		</g>
		<g id="shape24-57" v:mID="24" v:groupContext="shape" transform="translate(-1077,737.499) rotate(-90)">
			<title>工作表.24</title>
			<path d="M0 1154.55 L11.11 1154.55" class="st2"/>
		</g>
		<g id="shape25-60" v:mID="25" v:groupContext="shape" transform="translate(-1015.89,1097.05) rotate(-108.726)">
			<title>工作表.25</title>
			<path d="M0 1154.55 L27.68 1154.55" class="st2"/>
		</g>
		<g id="shape26-63" v:mID="26" v:groupContext="shape" transform="translate(77.5464,-301.649)">
			<title>工作表.26</title>
			<path d="M0 1039.15 L0 1108.36 L0 1154.55" class="st2"/>
		</g>
		<g id="shape28-66" v:mID="28" v:groupContext="shape" transform="translate(215.303,-267.742)">
			<title>工作表.28</title>
			<rect x="0" y="1107.89" width="22.2188" height="46.6595" class="st1"/>
		</g>
		<g id="shape29-68" v:mID="29" v:groupContext="shape" transform="translate(221.969,-298.626)">
			<title>工作表.29</title>
			<ellipse cx="4.88814" cy="1150.55" rx="4.88814" ry="3.99939" class="st1"/>
		</g>
		<g id="shape30-70" v:mID="30" v:groupContext="shape" transform="translate(221.969,-277.074)">
			<title>工作表.30</title>
			<ellipse cx="4.88814" cy="1150.55" rx="4.88814" ry="3.99939" class="st1"/>
		</g>
		<g id="shape31-72" v:mID="31" v:groupContext="shape" transform="translate(297.029,-375.224)">
			<title>工作表.31</title>
			<ellipse cx="6.35216" cy="1148.2" rx="6.35216" ry="6.35216" class="st1"/>
		</g>
		<g id="shape32-74" v:mID="32" v:groupContext="shape" transform="translate(297.029,-353.284)">
			<title>工作表.32</title>
			<ellipse cx="6.35216" cy="1148.2" rx="6.35216" ry="6.35216" class="st1"/>
		</g>
		<g id="shape33-76" v:mID="33" v:groupContext="shape" transform="translate(297.029,-297.419)">
			<title>工作表.33</title>
			<ellipse cx="6.35216" cy="1148.2" rx="6.35216" ry="6.35216" class="st1"/>
		</g>
		<g id="shape34-78" v:mID="34" v:groupContext="shape" transform="translate(297.826,-274.721)">
			<title>工作表.34</title>
			<ellipse cx="6.35216" cy="1148.2" rx="6.35216" ry="6.35216" class="st1"/>
		</g>
		<g id="shape36-80" v:mID="36" v:groupContext="shape" transform="translate(226.413,-303.292)">
			<title>工作表.36</title>
			<path d="M0 1154.55 L76.01 1154.55" class="st2"/>
		</g>
		<g id="shape37-83" v:mID="37" v:groupContext="shape" transform="translate(226.413,-281.073)">
			<title>工作表.37</title>
			<path d="M0 1154.55 L77.77 1154.55" class="st2"/>
		</g>
		<g id="shape38-86" v:mID="38" v:groupContext="shape" transform="translate(303.067,1928.04) rotate(180)">
			<title>工作表.38</title>
			<path d="M0 1154.55 L225.52 1154.55" class="st2"/>
		</g>
		<g id="shape39-89" v:mID="39" v:groupContext="shape" transform="translate(297.99,1949.14) rotate(-179.693)">
			<title>工作表.39</title>
			<path d="M0 1154.55 L269.42 1154.55" class="st2"/>
		</g>
		<g id="shape40-92" v:mID="40" v:groupContext="shape" transform="translate(419.232,-335.822)">
			<title>工作表.40</title>
			<ellipse cx="6.35216" cy="1148.2" rx="6.35216" ry="6.35216" class="st1"/>
		</g>
		<g id="shape41-94" v:mID="41" v:groupContext="shape" transform="translate(419.232,-319.158)">
			<title>工作表.41</title>
			<ellipse cx="6.35216" cy="1148.2" rx="6.35216" ry="6.35216" class="st1"/>
		</g>
		<g id="shape42-96" v:mID="42" v:groupContext="shape" transform="translate(419.232,-303.292)">
			<title>工作表.42</title>
			<ellipse cx="6.35216" cy="1148.2" rx="6.35216" ry="6.35216" class="st1"/>
		</g>
		<g id="shape43-98" v:mID="43" v:groupContext="shape" transform="translate(426.382,-342.175)">
			<title>工作表.43</title>
			<path d="M0 1154.55 L49.99 1154.55" class="st2"/>
		</g>
		<g id="shape44-101" v:mID="44" v:groupContext="shape" transform="translate(426.382,-325.511)">
			<title>工作表.44</title>
			<path d="M0 1154.55 L49.99 1154.55" class="st2"/>
		</g>
		<g id="shape45-104" v:mID="45" v:groupContext="shape" transform="translate(426.382,-308.846)">
			<title>工作表.45</title>
			<path d="M0 1154.55 L49.99 1154.55" class="st2"/>
		</g>
		<g id="shape46-107" v:mID="46" v:groupContext="shape" transform="translate(476.374,-336.62)">
			<title>工作表.46</title>
			<rect x="0" y="1143.44" width="36.661" height="11.1094" class="st1"/>
		</g>
		<g id="shape47-109" v:mID="47" v:groupContext="shape" transform="translate(513.035,-308.846)">
			<title>工作表.47</title>
			<path d="M0 1121.22 L18.89 1121.22 L18.89 1154.55" class="st2"/>
		</g>
		<g id="shape48-112" v:mID="48" v:groupContext="shape" transform="translate(476.374,-308.846)">
			<title>工作表.48</title>
			<path d="M0 1154.55 L55.55 1154.55" class="st2"/>
		</g>
		<g id="shape49-115" v:mID="49" v:groupContext="shape" transform="translate(476.374,-325.511)">
			<title>工作表.49</title>
			<path d="M0 1154.55 L55.55 1154.55" class="st2"/>
		</g>
		<g id="shape50-118" v:mID="50" v:groupContext="shape" transform="translate(485.262,-353.284)">
			<title>工作表.50</title>
			<desc>Rt</desc>
			<v:textBlock v:margins="rect(4,4,4,4)" v:tabSpace="42.5197"/>
			<v:textRect cx="11.1094" cy="1153.22" width="22.22" height="2.66626"/>
			<rect x="0" y="1151.88" width="22.2188" height="2.66626" class="st4"/>
			<text x="5.11" y="1156.82" class="st3" v:langID="2052"><v:paragraph v:horizAlign="1"/><v:tabList/>Rt</text>		</g>
		<g id="shape53-121" v:mID="53" v:groupContext="shape" transform="translate(469.709,-364.393)">
			<title>工作表.53</title>
			<desc>温度传感器</desc>
			<v:textBlock v:margins="rect(4,4,4,4)" v:tabSpace="42.5197"/>
			<v:textRect cx="26.6626" cy="1154.55" width="53.33" height="0"/>
			<g id="shape54-122" v:mID="54" v:groupContext="shape" transform="translate(309.733,-369.948)">
				<title>工作表.54</title>
				<desc>供电</desc>
				<v:textBlock v:margins="rect(4,4,4,4)" v:tabSpace="42.5197"/>
				<v:textRect cx="26.6626" cy="1154.55" width="53.33" height="0"/>
				<g id="shape55-123" v:mID="55" v:groupContext="shape" transform="translate(310.844,-325.511)">
					<title>工作表.55</title>
					<desc>温度控制器</desc>
					<v:textBlock v:margins="rect(4,4,4,4)" v:tabSpace="42.5197"/>
					<v:textRect cx="26.6626" cy="1154.55" width="53.33" height="0"/>
					<g id="shape56-124" v:mID="56" v:groupContext="shape" transform="translate(309.733,-291.071)">
						<title>工作表.56</title>
						<desc>SSR输出</desc>
						<v:textBlock v:margins="rect(4,4,4,4)" v:tabSpace="42.5197"/>
						<v:textRect cx="26.6626" cy="1154.55" width="53.33" height="0"/>
						<g id="shape57-125" v:mID="57" v:groupContext="shape" transform="translate(160.867,-302.625)">
							<title>工作表.57</title>
							<desc>固态 继电器</desc>
							<v:textBlock v:margins="rect(4,4,4,4)" v:tabSpace="42.5197"/>
							<v:textRect cx="26.6626" cy="1154.55" width="53.33" height="0"/>
							<g id="shape58-126" v:mID="58" v:groupContext="shape" transform="translate(181.975,-301.736)">
								<title>工作表.58</title>
								<desc>-</desc>
								<v:textBlock v:margins="rect(4,4,4,4)" v:tabSpace="42.5197"/>
								<v:textRect cx="26.6626" cy="1154.55" width="53.33" height="0"/>
								<g id="shape59-127" v:mID="59" v:groupContext="shape" transform="translate(181.975,-277.074)">
									<title>工作表.59</title>
									<desc>+</desc>
									<v:textBlock v:margins="rect(4,4,4,4)" v:tabSpace="42.5197"/>
									<v:textRect cx="26.6626" cy="1154.55" width="53.33" height="0"/>
									<g id="shape60-128" v:mID="60" v:groupContext="shape" transform="translate(181.975,-289.96)">
										<title>工作表.60</title>
										<desc>IN</desc>
										<v:textBlock v:margins="rect(4,4,4,4)" v:tabSpace="42.5197"/>
										<v:textRect cx="26.6626" cy="1154.55" width="53.33" height="0"/>
										<g id="shape61-129" v:mID="61" v:groupContext="shape"
												transform="translate(88.6558,-444.826)">
											<title>工作表.61</title>
											<desc>QF断路器</desc>
											<v:textBlock v:margins="rect(4,4,4,4)" v:tabSpace="42.5197"/>
											<v:textRect cx="26.6626" cy="1154.55" width="53.33" height="0"/>
											<g id="shape63-130" v:mID="63" v:groupContext="shape"
													transform="translate(577.559,-418.394)">
												<title>工作表.63</title>
												<rect x="0" y="1020.19" width="246.331" height="134.362" class="st1"/>
											</g>
											<g id="shape64-132" v:mID="64" v:groupContext="shape"
													transform="translate(637.795,-538.583)">
												<title>工作表.64</title>
												<desc>A1配电室温控仪</desc>
												<v:textBlock v:margins="rect(4,4,4,4)" v:tabSpace="42.5197"/>
												<v:textRect cx="57.6226" cy="1154.55" width="115.25" height="0"/>
												<g id="shape65-133" v:mID="65" v:groupContext="shape"
														transform="translate(589.606,-510.236)">
													<title>工作表.65</title>
													<desc>A相温度</desc>
													<v:textBlock v:margins="rect(4,4,4,4)" v:tabSpace="42.5197"/>
													<v:textRect cx="26.6626" cy="1154.55" width="53.33" height="0"/>
													<g id="shape66-134" v:mID="66" v:groupContext="shape"
															transform="translate(589.606,-493.228)">
														<title>工作表.66</title>
														<desc>B相温度</desc>
														<v:textBlock v:margins="rect(4,4,4,4)" v:tabSpace="42.5197"/>
														<v:textRect cx="26.6626" cy="1154.55" width="53.33" height="0"/>
														<g id="shape67-135" v:mID="67" v:groupContext="shape"
																transform="translate(589.606,-473.386)">
															<title>工作表.67</title>
															<desc>C相温度</desc>
															<v:textBlock v:margins="rect(4,4,4,4)" v:tabSpace="42.5197"/>
															<v:textRect cx="26.6626" cy="1154.55" width="53.33" height="0"/>
															<g id="shape68-136" v:mID="68" v:groupContext="shape"
																	transform="translate(589.606,-453.543)">
																<title>工作表.68</title>
																<desc>D相温度</desc>
																<v:textBlock v:margins="rect(4,4,4,4)" v:tabSpace="42.5197"/>
																<v:textRect cx="26.6626" cy="1154.55" width="53.33" height="0"/>
																<g id="shape69-137" v:mID="69" v:groupContext="shape"
																		transform="translate(637.795,-510.236)">
																	<title>工作表.69</title>
																	<desc>0.0℃</desc>
																	<v:textBlock v:margins="rect(4,4,4,4)" v:tabSpace="42.5197"/>
																	<v:textRect cx="26.6626" cy="1154.55" width="53.33" height="0"/>
																	<g id="shape70-138" v:mID="70" v:groupContext="shape"
																			transform="translate(637.795,-493.228)">
																		<title>工作表.70</title>
																		<desc>0.0℃</desc>
																		<v:textBlock v:margins="rect(4,4,4,4)" v:tabSpace="42.5197"/>
																		<v:textRect cx="26.6626" cy="1154.55" width="53.33"
																				height="0"/>
																		<g id="shape71-139" v:mID="71" v:groupContext="shape"
																				transform="translate(637.795,-473.386)">
																			<title>工作表.71</title>
																			<desc>0.0℃</desc>
																			<v:textBlock v:margins="rect(4,4,4,4)"
																					v:tabSpace="42.5197"/>
																			<v:textRect cx="26.6626" cy="1154.55" width="53.33"
																					height="0"/>
																			<g id="shape72-140" v:mID="72" v:groupContext="shape"
																					transform="translate(637.795,-453.543)">
																				<title>工作表.72</title>
																				<desc>0.0℃</desc>
																				<v:textBlock v:margins="rect(4,4,4,4)"
																						v:tabSpace="42.5197"/>
																				<v:textRect cx="26.6626" cy="1154.55" width="53.33"
																						height="0"/>
																				<g id="shape73-141" v:mID="73"
																						v:groupContext="shape"
																						transform="translate(697.323,-510.236)">
																					<title>工作表.73</title>
																					<desc>风机控制输出状态</desc>
																					<v:textBlock v:margins="rect(4,4,4,4)"
																							v:tabSpace="42.5197"/>
																					<v:textRect cx="57.6226" cy="1154.55"
																							width="115.25" height="0"/>
																					<g id="shape74-142" v:mID="74"
																							v:groupContext="shape"
																							transform="translate(697.323,-493.228)">
																						<title>工作表.74</title>
																						<desc>超温跳闸输出状态</desc>
																						<v:textBlock v:margins="rect(4,4,4,4)"
																								v:tabSpace="42.5197"/>
																						<v:textRect cx="57.0472" cy="1154.55"
																								width="114.1" height="0"/>
																						<g id="shape75-143" v:mID="75"
																								v:groupContext="shape"
																								transform="translate(697.323,-473.386)">
																							<title>工作表.75</title>
																							<desc>超温报警输出状态</desc>
																							<v:textBlock v:margins="rect(4,4,4,4)"
																									v:tabSpace="42.5197"/>
																							<v:textRect cx="57.0472" cy="1154.55"
																									width="114.1" height="0"/>
																							<g id="shape76-144" v:mID="76"
																									v:groupContext="shape"
																									transform="translate(697.323,-453.543)">
																								<title>工作表.76</title>
																								<desc>故障报警输出状态</desc>
																								<v:textBlock
																										v:margins="rect(4,4,4,4)"
																										v:tabSpace="42.5197"/>
																								<v:textRect cx="57.0472"
																										cy="1154.55" width="114.1"
																										height="0"/>
																								<g id="shape77-145" v:mID="77"
																										v:groupContext="shape"
																										transform="translate(806.457,-507.402)">
																									<title>工作表.77</title>
																									<ellipse cx="3.54331"
																											cy="1151.01"
																											rx="3.54331"
																											ry="3.54331"
																											class="st1"/>
																								</g>
																								<g id="shape78-147" v:mID="78"
																										v:groupContext="shape"
																										transform="translate(806.457,-488.976)">
																									<title>工作表.78</title>
																									<ellipse cx="3.54331"
																											cy="1151.01"
																											rx="3.54331"
																											ry="3.54331"
																											class="st1"/>
																								</g>
																								<g id="shape79-149" v:mID="79"
																										v:groupContext="shape"
																										transform="translate(806.457,-469.843)">
																									<title>工作表.79</title>
																									<ellipse cx="3.54331"
																											cy="1151.01"
																											rx="3.54331"
																											ry="3.54331"
																											class="st1"/>
																								</g>
																								<g id="shape80-151" v:mID="80"
																										v:groupContext="shape"
																										transform="translate(806.457,-450)">
																									<title>工作表.80</title>
																									<ellipse cx="3.54331"
																											cy="1151.01"
																											rx="3.54331"
																											ry="3.54331"
																											class="st1"/>
																								</g>
																								<g id="shape81-153" v:mID="81"
																										v:groupContext="shape"
																										transform="translate(575.717,-216.283)">
																									<title>工作表.81</title>
																									<rect x="0" y="1020.19"
																											width="246.331"
																											height="134.362"
																											class="st1"/>
																								</g>
																								<g id="shape82-155" v:mID="82"
																										v:groupContext="shape"
																										transform="translate(635.953,-336.472)">
																									<title>工作表.82</title>
																									<desc>A2配电室温控仪</desc>
																									<v:textBlock
																											v:margins="rect(4,4,4,4)"
																											v:tabSpace="42.5197"/>
																									<v:textRect cx="57.6226"
																											cy="1154.55"
																											width="115.25"
																											height="0"/>
																									<g id="shape83-156" v:mID="83"
																											v:groupContext="shape"
																											transform="translate(587.764,-308.126)">
																										<title>工作表.83</title>
																										<desc>A相温度</desc>
																										<v:textBlock
																												v:margins="rect(4,4,4,4)"
																												v:tabSpace="42.5197"/>
																										<v:textRect cx="26.6626"
																												cy="1154.55"
																												width="53.33"
																												height="0"/>
																										<g id="shape84-157"
																												v:mID="84"
																												v:groupContext="shape"
																												transform="translate(587.764,-291.118)">
																											<title>工作表.84</title>
																											<desc>B相温度</desc>
																											<v:textBlock
																													v:margins="rect(4,4,4,4)"
																													v:tabSpace="42.5197"/>
																											<v:textRect
																													cx="26.6626"
																													cy="1154.55"
																													width="53.33"
																													height="0"/>
																											<g id="shape85-158"
																													v:mID="85"
																													v:groupContext="shape"
																													transform="translate(587.764,-271.276)">
																												<title>工作表.85</title>
																												<desc>C相温度</desc>
																												<v:textBlock
																														v:margins="rect(4,4,4,4)"
																														v:tabSpace="42.5197"/>
																												<v:textRect
																														cx="26.6626"
																														cy="1154.55"
																														width="53.33"
																														height="0"/>
																												<g id="shape86-159"
																														v:mID="86"
																														v:groupContext="shape"
																														transform="translate(587.764,-251.433)">
																													<title>工作表.86</title>
																													<desc>D相温度</desc>
																													<v:textBlock
																															v:margins="rect(4,4,4,4)"
																															v:tabSpace="42.5197"/>
																													<v:textRect
																															cx="26.6626"
																															cy="1154.55"
																															width="53.33"
																															height="0"/>
																													<g
																															id="shape87-160"
																															v:mID="87"
																															v:groupContext="shape"
																															transform="translate(635.953,-308.126)">
																														<title>工作表.87</title>
																														<desc>0.0℃</desc>
																														<v:textBlock
																																v:margins="rect(4,4,4,4)"
																																v:tabSpace="42.5197"/>
																														<v:textRect
																																cx="26.6626"
																																cy="1154.55"
																																width="53.33"
																																height="0"/>
																														<g
																																id="shape88-161"
																																v:mID="88"
																																v:groupContext="shape"
																																transform="translate(635.953,-291.118)">
																															<title>工作表.88</title>
																															<desc>0.0℃</desc>
																															<v:textBlock
																																	v:margins="rect(4,4,4,4)"
																																	v:tabSpace="42.5197"/>
																															<v:textRect
																																	cx="26.6626"
																																	cy="1154.55"
																																	width="53.33"
																																	height="0"/>
																															<g
																																	id="shape89-162"
																																	v:mID="89"
																																	v:groupContext="shape"
																																	transform="translate(635.953,-271.276)">
																																<title>工作表.89</title>
																																<desc>0.0℃</desc>
																																<v:textBlock
																																		v:margins="rect(4,4,4,4)"
																																		v:tabSpace="42.5197"/>
																																<v:textRect
																																		cx="26.6626"
																																		cy="1154.55"
																																		width="53.33"
																																		height="0"/>
																																<g
																																		id="shape90-163"
																																		v:mID="90"
																																		v:groupContext="shape"
																																		transform="translate(635.953,-251.433)">
																																	<title>工作表.90</title>
																																	<desc>0.0℃</desc>
																																	<v:textBlock
																																			v:margins="rect(4,4,4,4)"
																																			v:tabSpace="42.5197"/>
																																	<v:textRect
																																			cx="26.6626"
																																			cy="1154.55"
																																			width="53.33"
																																			height="0"/>
																																	<g
																																			id="shape91-164"
																																			v:mID="91"
																																			v:groupContext="shape"
																																			transform="translate(695.48,-308.126)">
																																		<title>工作表.91</title>
																																		<desc>风机控制输出状态</desc>
																																		<v:textBlock
																																				v:margins="rect(4,4,4,4)"
																																				v:tabSpace="42.5197"/>
																																		<v:textRect
																																				cx="57.6226"
																																				cy="1154.55"
																																				width="115.25"
																																				height="0"/>
																																		<g
																																				id="shape92-165"
																																				v:mID="92"
																																				v:groupContext="shape"
																																				transform="translate(695.48,-291.118)">
																																			<title>工作表.92</title>
																																			<desc>超温跳闸输出状态</desc>
																																			<v:textBlock
																																					v:margins="rect(4,4,4,4)"
																																					v:tabSpace="42.5197"/>
																																			<v:textRect
																																					cx="57.0472"
																																					cy="1154.55"
																																					width="114.1"
																																					height="0"/>
																																			<g
																																					id="shape93-166"
																																					v:mID="93"
																																					v:groupContext="shape"
																																					transform="translate(695.48,-271.276)">
																																				<title>工作表.93</title>
																																				<desc>超温报警输出状态</desc>
																																				<v:textBlock
																																						v:margins="rect(4,4,4,4)"
																																						v:tabSpace="42.5197"/>
																																				<v:textRect
																																						cx="57.0472"
																																						cy="1154.55"
																																						width="114.1"
																																						height="0"/>
																																				<g
																																						id="shape94-167"
																																						v:mID="94"
																																						v:groupContext="shape"
																																						transform="translate(695.48,-251.433)">
																																					<title>工作表.94</title>
																																					<desc>故障报警输出状态</desc>
																																					<v:textBlock
																																							v:margins="rect(4,4,4,4)"
																																							v:tabSpace="42.5197"/>
																																					<v:textRect
																																							cx="57.0472"
																																							cy="1154.55"
																																							width="114.1"
																																							height="0"/>
																																					<g
																																							id="shape95-168"
																																							v:mID="95"
																																							v:groupContext="shape"
																																							transform="translate(804.614,-305.291)">
																																						<title>工作表.95</title>
																																						<ellipse
																																								cx="3.54331"
																																								cy="1151.01"
																																								rx="3.54331"
																																								ry="3.54331"
																																								class="st1"/>
																																					</g>
																																					<g
																																							id="shape96-170"
																																							v:mID="96"
																																							v:groupContext="shape"
																																							transform="translate(804.614,-286.866)">
																																						<title>工作表.96</title>
																																						<ellipse
																																								cx="3.54331"
																																								cy="1151.01"
																																								rx="3.54331"
																																								ry="3.54331"
																																								class="st1"/>
																																					</g>
																																					<g
																																							id="shape97-172"
																																							v:mID="97"
																																							v:groupContext="shape"
																																							transform="translate(804.614,-267.732)">
																																						<title>工作表.97</title>
																																						<ellipse
																																								cx="3.54331"
																																								cy="1151.01"
																																								rx="3.54331"
																																								ry="3.54331"
																																								class="st1"/>
																																					</g>
																																					<g
																																							id="shape98-174"
																																							v:mID="98"
																																							v:groupContext="shape"
																																							transform="translate(804.614,-247.89)">
																																						<title>工作表.98</title>
																																						<ellipse
																																								cx="3.54331"
																																								cy="1151.01"
																																								rx="3.54331"
																																								ry="3.54331"
																																								class="st1"/>
																																					</g>
																																					<g
																																							id="shape100-176"
																																							v:mID="100"
																																							v:groupContext="shape"
																																							transform="translate(2.83465,-138.898)">
																																						<title>工作表.100</title>
																																						<path
																																								d="
																																									M0 698.17 L833.39 698.17 L836.22 1154.55 L11.34 1154.55
																																									 L8.5 698.17"
																																								class="st5"/>
																																					</g>
																																				</g>
</svg>
