<?xml version="1.0" encoding="UTF-8" standalone="no"?>
<!DOCTYPE svg PUBLIC "-//W3C//DTD SVG 1.1//EN" "http://www.w3.org/Graphics/SVG/1.1/DTD/svg11.dtd">
<!-- 由 Microsoft Visio, SVG Export 生成 A45电力 - 副本.svg Page-1 -->
<svg xmlns="http://www.w3.org/2000/svg" xmlns:xlink="http://www.w3.org/1999/xlink" xmlns:ev="http://www.w3.org/2001/xml-events"
		xmlns:v="http://schemas.microsoft.com/visio/2003/SVGExtensions/" width="23.8031in" height="22.8858in"
		viewBox="0 0 1713.83 1647.78" xml:space="preserve" color-interpolation-filters="sRGB" class="st13">
	<v:documentProperties v:langID="2052" v:metric="true" v:viewMarkup="false">
		<v:userDefs>
			<v:ud v:nameU="msvNoAutoConnect" v:val="VT0(1):26"/>
		</v:userDefs>
	</v:documentProperties>

	<style type="text/css">
	<![CDATA[
		.st1 {fill:#000000;stroke:#000000;stroke-linecap:round;stroke-linejoin:round;stroke-width:0.75}
		.st2 {fill:#000000;font-family:宋体;font-size:1.00001em}
		.st3 {stroke:#ff0000;stroke-linecap:round;stroke-linejoin:round;stroke-width:1}
		.st4 {stroke:#00b050;stroke-linecap:round;stroke-linejoin:round;stroke-width:1}
		.st5 {fill:#ffffff;stroke:#00b050;stroke-linecap:round;stroke-linejoin:round;stroke-width:1}
		.st6 {fill:#ffffff;stroke:#000000;stroke-linecap:round;stroke-linejoin:round;stroke-width:1}
		.st7 {fill:#ff0000;stroke:#ff0000;stroke-linecap:round;stroke-linejoin:round;stroke-width:1}
		.st8 {fill:#ffffff;stroke:#00b0f0;stroke-linecap:round;stroke-linejoin:round;stroke-width:1}
		.st9 {stroke:#00b0f0;stroke-linecap:round;stroke-linejoin:round;stroke-width:1}
		.st10 {fill:none;stroke:none;stroke-linecap:round;stroke-linejoin:round;stroke-width:1}
		.st11 {stroke:#ff0000;stroke-linecap:round;stroke-linejoin:round;stroke-width:0.75}
		.st12 {fill:#ffffff;stroke:#00b0f0;stroke-linecap:round;stroke-linejoin:round;stroke-width:0.75}
		.st13 {fill:none;fill-rule:evenodd;font-size:12px;overflow:visible;stroke-linecap:square;stroke-miterlimit:3}
	]]>
	</style>

	<g v:mID="0" v:index="1" v:groupContext="foregroundPage">
		<title>页-1</title>
		<v:pageProperties v:drawingScale="0.0393701" v:pageScale="0.0393701" v:drawingUnits="24" v:shadowOffsetX="8.50394"
				v:shadowOffsetY="-8.50394"/>
		<g id="shape1-1" v:mID="1" v:groupContext="shape" transform="translate(-21.2598,33.4891)">
			<title>工作表.1</title>
			<desc>·</desc>
			<v:textBlock v:margins="rect(4,4,4,4)" v:tabSpace="42.5197"/>
			<v:textRect cx="871.654" cy="807.145" width="1743.31" height="1681.27"/>
			<rect x="0" y="-33.4891" width="1743.31" height="1681.27" class="st1"/>
			<text x="865.65" y="810.75" class="st2" v:langID="2052"><v:paragraph v:horizAlign="1"/><v:tabList/>·</text>		</g>
		<g id="shape2-4" v:mID="2" v:groupContext="shape" transform="translate(320.476,-1283.01)">
			<title>工作表.2</title>
			<path d="M0 1647.78 L237.92 1647.78" class="st3"/>
		</g>
		<g id="shape3-7" v:mID="3" v:groupContext="shape" transform="translate(327.865,-1022.97)">
			<title>工作表.3</title>
			<path d="M92.36 1647.78 L93.1 1577.29 L0 1577.29 L0 1644.48" class="st3"/>
		</g>
		<g id="shape4-10" v:mID="4" v:groupContext="shape" transform="translate(1976.75,685.297) rotate(90)">
			<title>工作表.4</title>
			<path d="M0 1647.78 L35.4 1647.78" class="st3"/>
		</g>
		<g id="shape5-13" v:mID="5" v:groupContext="shape" transform="translate(1976.38,726.732) rotate(90)">
			<title>工作表.5</title>
			<path d="M0 1647.78 L23.81 1647.78" class="st4"/>
		</g>
		<g id="shape6-16" v:mID="6" v:groupContext="shape" transform="translate(313.826,-887.709)">
			<title>工作表.6</title>
			<path d="M0 1647.78 L30.29 1647.78" class="st4"/>
		</g>
		<g id="shape7-19" v:mID="7" v:groupContext="shape" transform="translate(320.23,-880.406)">
			<title>工作表.7</title>
			<path d="M0 1647.78 L15.52 1647.78" class="st4"/>
		</g>
		<g id="shape8-22" v:mID="8" v:groupContext="shape" transform="translate(324.91,-861.038)">
			<title>工作表.8</title>
		</g>
		<g id="shape9-23" v:mID="9" v:groupContext="shape" transform="translate(324.91,-861.038)">
			<title>工作表.9</title>
		</g>
		<g id="shape10-24" v:mID="10" v:groupContext="shape" transform="translate(398.059,-965.816)">
			<title>工作表.10</title>
			<rect x="0" y="1592.53" width="44.3333" height="55.2464" class="st5"/>
		</g>
		<g id="shape11-26" v:mID="11" v:groupContext="shape" transform="translate(408.404,-902.949)">
			<title>工作表.11</title>
			<path d="M0 1647.78 L23.64 1647.78" class="st4"/>
		</g>
		<g id="shape12-29" v:mID="12" v:groupContext="shape" transform="translate(411.359,-893.424)">
			<title>工作表.12</title>
			<path d="M0 1647.78 L15.89 1647.78" class="st4"/>
		</g>
		<g id="shape13-32" v:mID="13" v:groupContext="shape" transform="translate(414.315,-883.899)">
			<title>工作表.13</title>
			<path d="M0 1647.78 L8.13 1647.78" class="st4"/>
		</g>
		<g id="shape14-35" v:mID="14" v:groupContext="shape" transform="translate(589.432,-1280.15)">
			<title>工作表.14</title>
			<path d="M0 1647.78 L237.92 1647.78" class="st3"/>
		</g>
		<g id="shape15-38" v:mID="15" v:groupContext="shape" transform="translate(481.554,-1173.47)">
			<title>工作表.15</title>
			<path d="M40.64 1647.78 L18.47 1633.49 L0 1647.78" class="st3"/>
		</g>
		<g id="shape16-41" v:mID="16" v:groupContext="shape" transform="translate(475.643,-973.436)">
			<title>工作表.16</title>
			<path d="M0 1623.97 L23.5 1647.78 L59.11 1623.97" class="st3"/>
		</g>
		<g id="shape17-44" v:mID="17" v:groupContext="shape" transform="translate(470.471,-1140.13)">
			<title>工作表.17</title>
			<rect x="0" y="1581.1" width="62.8055" height="66.6767" class="st6"/>
		</g>
		<g id="shape18-46" v:mID="18" v:groupContext="shape" transform="translate(470.471,-959.148)">
			<title>工作表.18</title>
			<rect x="0" y="1585.87" width="66.5" height="61.9141" class="st6"/>
		</g>
		<g id="shape19-48" v:mID="19" v:groupContext="shape" transform="translate(483.292,-1174.81)">
			<title>工作表.19</title>
			<path d="M0 1647.78 L20.43 1618.64 L38.9 1647.22" class="st3"/>
		</g>
		<g id="shape20-51" v:mID="20" v:groupContext="shape" transform="translate(1991.67,-12.4516) rotate(66.0939)">
			<title>工作表.20</title>
			<path d="M0 1647.78 L36.47 1647.78" class="st3"/>
		</g>
		<g id="shape21-54" v:mID="21" v:groupContext="shape" transform="translate(1963.51,1453.9) rotate(118.99)">
			<title>工作表.21</title>
			<path d="M0 1647.78 L38.11 1647.78" class="st3"/>
		</g>
		<g id="shape22-57" v:mID="22" v:groupContext="shape" transform="translate(490.421,-1044.88)">
			<title>工作表.22</title>
			<rect x="0" y="1600.15" width="28.0778" height="47.6262" class="st7"/>
		</g>
		<g id="shape23-59" v:mID="23" v:groupContext="shape" transform="translate(614.554,-968.673)">
			<title>工作表.23</title>
			<path d="M0 1485.85 L96.06 1485.85 L97.53 1647.78" class="st3"/>
		</g>
		<g id="shape24-62" v:mID="24" v:groupContext="shape" transform="translate(695.832,-927.715)">
			<title>工作表.24</title>
			<ellipse cx="14.7778" cy="1629.68" rx="14.7778" ry="18.098" class="st8"/>
		</g>
		<g id="shape25-64" v:mID="25" v:groupContext="shape" transform="translate(681.054,-889.614)">
			<title>工作表.25</title>
			<ellipse cx="14.7778" cy="1628.73" rx="14.7778" ry="19.0505" class="st8"/>
		</g>
		<g id="shape26-66" v:mID="26" v:groupContext="shape" transform="translate(710.609,-887.709)">
			<title>工作表.26</title>
			<ellipse cx="14.7778" cy="1628.73" rx="14.7778" ry="19.0505" class="st8"/>
		</g>
		<g id="shape27-68" v:mID="27" v:groupContext="shape" transform="translate(777.109,-1178.23)">
			<title>工作表.27</title>
			<path d="M40.64 1647.78 L18.47 1633.49 L0 1647.78" class="st3"/>
		</g>
		<g id="shape28-71" v:mID="28" v:groupContext="shape" transform="translate(771.198,-978.199)">
			<title>工作表.28</title>
			<path d="M0 1623.97 L23.5 1647.78 L59.11 1623.97" class="st3"/>
		</g>
		<g id="shape29-74" v:mID="29" v:groupContext="shape" transform="translate(766.026,-1144.89)">
			<title>工作表.29</title>
			<rect x="0" y="1581.1" width="62.8055" height="66.6767" class="st6"/>
		</g>
		<g id="shape30-76" v:mID="30" v:groupContext="shape" transform="translate(766.026,-963.911)">
			<title>工作表.30</title>
			<rect x="0" y="1585.87" width="66.5" height="61.9141" class="st6"/>
		</g>
		<g id="shape31-78" v:mID="31" v:groupContext="shape" transform="translate(778.848,-1179.57)">
			<title>工作表.31</title>
			<path d="M0 1647.78 L20.43 1618.64 L38.9 1647.22" class="st3"/>
		</g>
		<g id="shape32-81" v:mID="32" v:groupContext="shape" transform="translate(2287.22,-17.2142) rotate(66.0939)">
			<title>工作表.32</title>
			<path d="M0 1647.78 L36.47 1647.78" class="st3"/>
		</g>
		<g id="shape33-84" v:mID="33" v:groupContext="shape" transform="translate(2259.07,1449.14) rotate(118.99)">
			<title>工作表.33</title>
			<path d="M0 1647.78 L38.11 1647.78" class="st3"/>
		</g>
		<g id="shape34-87" v:mID="34" v:groupContext="shape" transform="translate(785.976,-1049.64)">
			<title>工作表.34</title>
			<rect x="0" y="1600.15" width="28.0778" height="47.6262" class="st7"/>
		</g>
		<g id="shape35-89" v:mID="35" v:groupContext="shape" transform="translate(327.865,-1135.37)">
			<title>工作表.35</title>
			<ellipse cx="14.7778" cy="1628.73" rx="14.7778" ry="19.0505" class="st8"/>
		</g>
		<g id="shape36-91" v:mID="36" v:groupContext="shape" transform="translate(359.637,-1133.46)">
			<title>工作表.36</title>
			<ellipse cx="14.7778" cy="1628.73" rx="14.7778" ry="19.0505" class="st8"/>
		</g>
		<g id="shape37-93" v:mID="37" v:groupContext="shape" transform="translate(391.163,-1133.78)">
			<title>工作表.37</title>
			<ellipse cx="14.7778" cy="1628.73" rx="14.7778" ry="19.0505" class="st8"/>
		</g>
		<g id="shape38-95" v:mID="38" v:groupContext="shape" transform="translate(2054.57,486.693) rotate(90.7286)">
			<title>工作表.38</title>
			<path d="M0 1647.78 L58.11 1647.78" class="st9"/>
		</g>
		<g id="shape39-98" v:mID="39" v:groupContext="shape" transform="translate(1989.68,457.168) rotate(90)">
			<title>工作表.39</title>
			<path d="M0 1647.78 L65.72 1647.78" class="st9"/>
		</g>
		<g id="shape40-101" v:mID="40" v:groupContext="shape" transform="translate(752.357,-748.64)">
			<title>工作表.40</title>
			<path d="M92.36 1647.78 L93.1 1585.87 L0 1585.87 L0 1644.88" class="st3"/>
		</g>
		<g id="shape41-104" v:mID="41" v:groupContext="shape" transform="translate(2400.51,1013.44) rotate(90)">
			<title>工作表.41</title>
			<path d="M0 1647.78 L23.81 1647.78" class="st4"/>
		</g>
		<g id="shape42-107" v:mID="42" v:groupContext="shape" transform="translate(737.948,-607.667)">
			<title>工作表.42</title>
			<path d="M0 1647.78 L30.29 1647.78" class="st4"/>
		</g>
		<g id="shape43-110" v:mID="43" v:groupContext="shape" transform="translate(745.337,-593.379)">
			<title>工作表.43</title>
			<path d="M0 1647.78 L15.52 1647.78" class="st4"/>
		</g>
		<g id="shape44-113" v:mID="44" v:groupContext="shape" transform="translate(749.032,-580.996)">
			<title>工作表.44</title>
		</g>
		<g id="shape45-114" v:mID="45" v:groupContext="shape" transform="translate(749.032,-580.996)">
			<title>工作表.45</title>
		</g>
		<g id="shape46-115" v:mID="46" v:groupContext="shape" transform="translate(747.554,-584.806)">
			<title>工作表.46</title>
			<path d="M0 1647.78 L9.75 1647.78" class="st4"/>
		</g>
		<g id="shape47-118" v:mID="47" v:groupContext="shape" transform="translate(818.302,-682.916)">
			<title>工作表.47</title>
			<rect x="0" y="1584.71" width="50.6139" height="63.073" class="st5"/>
		</g>
		<g id="shape48-120" v:mID="48" v:groupContext="shape" transform="translate(752.357,-852.465)">
			<title>工作表.48</title>
			<ellipse cx="14.7778" cy="1628.73" rx="14.7778" ry="19.0505" class="st8"/>
		</g>
		<g id="shape49-122" v:mID="49" v:groupContext="shape" transform="translate(784.129,-850.56)">
			<title>工作表.49</title>
			<ellipse cx="14.7778" cy="1628.73" rx="14.7778" ry="19.0505" class="st8"/>
		</g>
		<g id="shape50-124" v:mID="50" v:groupContext="shape" transform="translate(815.655,-850.878)">
			<title>工作表.50</title>
			<ellipse cx="14.7778" cy="1628.73" rx="14.7778" ry="19.0505" class="st8"/>
		</g>
		<g id="shape51-126" v:mID="51" v:groupContext="shape" transform="translate(2479.06,769.593) rotate(90.7286)">
			<title>工作表.51</title>
			<path d="M0 1647.78 L58.11 1647.78" class="st9"/>
		</g>
		<g id="shape52-129" v:mID="52" v:groupContext="shape" transform="translate(2414.18,740.068) rotate(90)">
			<title>工作表.52</title>
			<path d="M0 1647.78 L65.72 1647.78" class="st9"/>
		</g>
		<g id="shape53-132" v:mID="53" v:groupContext="shape" transform="translate(782.282,-558.135)">
			<title>工作表.53</title>
			<path d="M36.94 1647.78 L16.26 1622.06 L0 1647.78 L36.94 1647.78 Z" class="st7"/>
		</g>
		<g id="shape54-134" v:mID="54" v:groupContext="shape" transform="translate(2021.59,368.384) rotate(90.1736)">
			<title>工作表.54</title>
			<path d="M0 1647.78 L534.8 1647.78" class="st3"/>
		</g>
		<g id="shape55-137" v:mID="55" v:groupContext="shape" transform="translate(354.751,-722.446)">
			<title>工作表.55</title>
			<path d="M36.94 1647.78 L16.26 1622.06 L0 1647.78 L36.94 1647.78 Z" class="st7"/>
		</g>
		<g id="shape56-139" v:mID="56" v:groupContext="shape" transform="translate(968.112,-1178.23)">
			<title>工作表.56</title>
			<path d="M40.64 1647.78 L18.47 1633.49 L0 1647.78" class="st3"/>
		</g>
		<g id="shape57-142" v:mID="57" v:groupContext="shape" transform="translate(962.201,-978.199)">
			<title>工作表.57</title>
			<path d="M0 1623.97 L23.5 1647.78 L59.11 1623.97" class="st3"/>
		</g>
		<g id="shape58-145" v:mID="58" v:groupContext="shape" transform="translate(957.029,-1144.89)">
			<title>工作表.58</title>
			<rect x="0" y="1581.1" width="62.8055" height="66.6767" class="st6"/>
		</g>
		<g id="shape59-147" v:mID="59" v:groupContext="shape" transform="translate(957.029,-963.911)">
			<title>工作表.59</title>
			<rect x="0" y="1585.87" width="66.5" height="61.9141" class="st6"/>
		</g>
		<g id="shape60-149" v:mID="60" v:groupContext="shape" transform="translate(969.851,-1179.57)">
			<title>工作表.60</title>
			<path d="M0 1647.78 L20.43 1618.64 L38.9 1647.22" class="st3"/>
		</g>
		<g id="shape61-152" v:mID="61" v:groupContext="shape" transform="translate(2478.22,-17.2142) rotate(66.0939)">
			<title>工作表.61</title>
			<path d="M0 1647.78 L36.47 1647.78" class="st3"/>
		</g>
		<g id="shape62-155" v:mID="62" v:groupContext="shape" transform="translate(2450.07,1449.14) rotate(118.99)">
			<title>工作表.62</title>
			<path d="M0 1647.78 L38.11 1647.78" class="st3"/>
		</g>
		<g id="shape63-158" v:mID="63" v:groupContext="shape" transform="translate(976.979,-1049.64)">
			<title>工作表.63</title>
			<rect x="0" y="1600.15" width="28.0778" height="47.6262" class="st7"/>
		</g>
		<g id="shape64-160" v:mID="64" v:groupContext="shape" transform="translate(943.359,-749.593)">
			<title>工作表.64</title>
			<path d="M92.36 1647.78 L93.1 1586.82 L0 1586.82 L0 1644.92" class="st3"/>
		</g>
		<g id="shape65-163" v:mID="65" v:groupContext="shape" transform="translate(2591.14,961.053) rotate(90)">
			<title>工作表.65</title>
			<path d="M0 1647.78 L49.53 1647.78" class="st3"/>
		</g>
		<g id="shape66-166" v:mID="66" v:groupContext="shape" transform="translate(2590.77,1019.16) rotate(90)">
			<title>工作表.66</title>
			<path d="M0 1647.78 L23.81 1647.78" class="st4"/>
		</g>
		<g id="shape67-169" v:mID="67" v:groupContext="shape" transform="translate(928.951,-600.047)">
			<title>工作表.67</title>
			<path d="M0 1647.78 L30.29 1647.78" class="st4"/>
		</g>
		<g id="shape68-172" v:mID="68" v:groupContext="shape" transform="translate(936.34,-585.759)">
			<title>工作表.68</title>
			<path d="M0 1647.78 L15.52 1647.78" class="st4"/>
		</g>
		<g id="shape69-175" v:mID="69" v:groupContext="shape" transform="translate(940.034,-573.376)">
			<title>工作表.69</title>
		</g>
		<g id="shape70-176" v:mID="70" v:groupContext="shape" transform="translate(940.034,-573.376)">
			<title>工作表.70</title>
		</g>
		<g id="shape71-177" v:mID="71" v:groupContext="shape" transform="translate(938.557,-577.186)">
			<title>工作表.71</title>
			<path d="M0 1647.78 L10.71 1647.78" class="st4"/>
		</g>
		<g id="shape72-180" v:mID="72" v:groupContext="shape" transform="translate(1013.55,-682.916)">
			<title>工作表.72</title>
			<rect x="0" y="1587.93" width="48.0278" height="59.8503" class="st5"/>
		</g>
		<g id="shape73-182" v:mID="73" v:groupContext="shape" transform="translate(943.359,-852.465)">
			<title>工作表.73</title>
			<ellipse cx="14.7778" cy="1628.73" rx="14.7778" ry="19.0505" class="st8"/>
		</g>
		<g id="shape74-184" v:mID="74" v:groupContext="shape" transform="translate(975.132,-850.56)">
			<title>工作表.74</title>
			<ellipse cx="14.7778" cy="1628.73" rx="14.7778" ry="19.0505" class="st8"/>
		</g>
		<g id="shape75-186" v:mID="75" v:groupContext="shape" transform="translate(1006.66,-850.878)">
			<title>工作表.75</title>
			<ellipse cx="14.7778" cy="1628.73" rx="14.7778" ry="19.0505" class="st8"/>
		</g>
		<g id="shape76-188" v:mID="76" v:groupContext="shape" transform="translate(2670.07,769.593) rotate(90.7286)">
			<title>工作表.76</title>
			<path d="M0 1647.78 L58.11 1647.78" class="st9"/>
		</g>
		<g id="shape77-191" v:mID="77" v:groupContext="shape" transform="translate(2605.18,740.068) rotate(90)">
			<title>工作表.77</title>
			<path d="M0 1647.78 L65.72 1647.78" class="st9"/>
		</g>
		<g id="shape78-194" v:mID="78" v:groupContext="shape" transform="translate(972.915,-556.23)">
			<title>工作表.78</title>
			<path d="M36.94 1647.78 L16.26 1622.06 L0 1647.78 L36.94 1647.78 Z" class="st7"/>
		</g>
		<g id="shape79-196" v:mID="79" v:groupContext="shape" transform="translate(2637.63,377.002) rotate(90)">
			<title>工作表.79</title>
			<path d="M0 1647.78 L685.82 1647.78" class="st3"/>
		</g>
		<g id="shape80-199" v:mID="80" v:groupContext="shape" transform="translate(944.415,-1278.24)">
			<title>工作表.80</title>
			<path d="M0 1647.78 L237.92 1647.78" class="st3"/>
		</g>
		<g id="shape81-202" v:mID="81" v:groupContext="shape" transform="translate(1131.78,-1028.21)">
			<title>工作表.81</title>
			<path d="M0 1485.85 L96.06 1485.85 L97.53 1647.78" class="st3"/>
		</g>
		<g id="shape82-205" v:mID="82" v:groupContext="shape" transform="translate(1213.05,-987.248)">
			<title>工作表.82</title>
			<ellipse cx="14.7778" cy="1629.68" rx="14.7778" ry="18.098" class="st8"/>
		</g>
		<g id="shape83-207" v:mID="83" v:groupContext="shape" transform="translate(1198.28,-949.147)">
			<title>工作表.83</title>
			<ellipse cx="14.7778" cy="1628.73" rx="14.7778" ry="19.0505" class="st8"/>
		</g>
		<g id="shape84-209" v:mID="84" v:groupContext="shape" transform="translate(1227.83,-947.242)">
			<title>工作表.84</title>
			<ellipse cx="14.7778" cy="1628.73" rx="14.7778" ry="19.0505" class="st8"/>
		</g>
		<g id="shape85-211" v:mID="85" v:groupContext="shape" transform="translate(1272.16,-1178.23)">
			<title>工作表.85</title>
			<path d="M40.64 1647.78 L18.47 1633.49 L0 1647.78" class="st3"/>
		</g>
		<g id="shape86-214" v:mID="86" v:groupContext="shape" transform="translate(1266.25,-978.199)">
			<title>工作表.86</title>
			<path d="M0 1623.97 L23.5 1647.78 L59.11 1623.97" class="st3"/>
		</g>
		<g id="shape87-217" v:mID="87" v:groupContext="shape" transform="translate(1261.08,-1144.89)">
			<title>工作表.87</title>
			<rect x="0" y="1581.1" width="62.8055" height="66.6767" class="st6"/>
		</g>
		<g id="shape88-219" v:mID="88" v:groupContext="shape" transform="translate(1261.08,-963.911)">
			<title>工作表.88</title>
			<rect x="0" y="1585.87" width="66.5" height="61.9141" class="st6"/>
		</g>
		<g id="shape89-221" v:mID="89" v:groupContext="shape" transform="translate(1273.9,-1179.57)">
			<title>工作表.89</title>
			<path d="M0 1647.78 L20.43 1618.64 L38.9 1647.22" class="st3"/>
		</g>
		<g id="shape90-224" v:mID="90" v:groupContext="shape" transform="translate(2782.28,-17.2142) rotate(66.0939)">
			<title>工作表.90</title>
			<path d="M0 1647.78 L36.47 1647.78" class="st3"/>
		</g>
		<g id="shape91-227" v:mID="91" v:groupContext="shape" transform="translate(2754.12,1449.14) rotate(118.99)">
			<title>工作表.91</title>
			<path d="M0 1647.78 L38.11 1647.78" class="st3"/>
		</g>
		<g id="shape92-230" v:mID="92" v:groupContext="shape" transform="translate(1281.03,-1049.64)">
			<title>工作表.92</title>
			<rect x="0" y="1600.15" width="28.0778" height="47.6262" class="st7"/>
		</g>
		<g id="shape93-232" v:mID="93" v:groupContext="shape" transform="translate(1250.39,-1275.74)">
			<title>工作表.93</title>
			<path d="M0 1647.78 L237.92 1647.78" class="st3"/>
		</g>
		<g id="shape94-235" v:mID="94" v:groupContext="shape" transform="translate(1368.59,-1026.35)">
			<title>工作表.94</title>
			<path d="M92.36 1647.78 L93.1 1586.82 L0 1586.82 L0 1644.92" class="st3"/>
		</g>
		<g id="shape95-238" v:mID="95" v:groupContext="shape" transform="translate(3016,683.869) rotate(90)">
			<title>工作表.95</title>
			<path d="M0 1647.78 L49.53 1647.78" class="st3"/>
		</g>
		<g id="shape96-241" v:mID="96" v:groupContext="shape" transform="translate(3016,742.403) rotate(90)">
			<title>工作表.96</title>
			<path d="M0 1647.78 L23.81 1647.78" class="st4"/>
		</g>
		<g id="shape97-244" v:mID="97" v:groupContext="shape" transform="translate(1353.44,-872.038)">
			<title>工作表.97</title>
			<path d="M0 1647.78 L30.29 1647.78" class="st4"/>
		</g>
		<g id="shape98-247" v:mID="98" v:groupContext="shape" transform="translate(1360.83,-857.75)">
			<title>工作表.98</title>
			<path d="M0 1647.78 L15.52 1647.78" class="st4"/>
		</g>
		<g id="shape99-250" v:mID="99" v:groupContext="shape" transform="translate(1364.53,-845.368)">
			<title>工作表.99</title>
		</g>
		<g id="shape100-251" v:mID="100" v:groupContext="shape" transform="translate(1364.53,-845.368)">
			<title>工作表.100</title>
		</g>
		<g id="shape101-252" v:mID="101" v:groupContext="shape" transform="translate(1438.83,-847.434) rotate(2.63606)">
			<title>工作表.101</title>
			<path d="M0 1647.78 L10.36 1647.78" class="st4"/>
		</g>
		<g id="shape102-255" v:mID="102" v:groupContext="shape" transform="translate(2757.02,-372.34) rotate(52.1987)">
			<title>工作表.102</title>
			<path d="M0 1647.78 L15.67 1647.78" class="st4"/>
		</g>
		<g id="shape103-258" v:mID="103" v:groupContext="shape" transform="translate(2818.88,1575.83) rotate(124.707)">
			<title>工作表.103</title>
			<path d="M0 1647.78 L16.22 1647.78" class="st4"/>
		</g>
		<g id="shape104-261" v:mID="104" v:groupContext="shape" transform="translate(1368.59,-1129.22)">
			<title>工作表.104</title>
			<ellipse cx="14.7778" cy="1628.73" rx="14.7778" ry="19.0505" class="st8"/>
		</g>
		<g id="shape105-263" v:mID="105" v:groupContext="shape" transform="translate(1400.36,-1127.31)">
			<title>工作表.105</title>
			<ellipse cx="14.7778" cy="1628.73" rx="14.7778" ry="19.0505" class="st8"/>
		</g>
		<g id="shape106-265" v:mID="106" v:groupContext="shape" transform="translate(1431.89,-1127.63)">
			<title>工作表.106</title>
			<ellipse cx="14.7778" cy="1628.73" rx="14.7778" ry="19.0505" class="st8"/>
		</g>
		<g id="shape107-267" v:mID="107" v:groupContext="shape" transform="translate(3095.3,492.838) rotate(90.7286)">
			<title>工作表.107</title>
			<path d="M0 1647.78 L58.11 1647.78" class="st9"/>
		</g>
		<g id="shape108-270" v:mID="108" v:groupContext="shape" transform="translate(3030.41,463.313) rotate(90)">
			<title>工作表.108</title>
			<path d="M0 1647.78 L65.72 1647.78" class="st9"/>
		</g>
		<g id="shape109-273" v:mID="109" v:groupContext="shape" transform="translate(3062.32,374.53) rotate(90.1736)">
			<title>工作表.109</title>
			<path d="M0 1647.78 L534.8 1647.78" class="st3"/>
		</g>
		<g id="shape110-276" v:mID="110" v:groupContext="shape" transform="translate(1395.48,-716.301)">
			<title>工作表.110</title>
			<path d="M36.94 1647.78 L16.26 1622.06 L0 1647.78 L36.94 1647.78 Z" class="st7"/>
		</g>
		<g id="shape111-278" v:mID="111" v:groupContext="shape" transform="translate(313.721,-1298.66)">
			<title>工作表.111</title>
			<desc>AH01</desc>
			<v:textBlock v:margins="rect(4,4,4,4)" v:tabSpace="42.5197"/>
			<v:textRect cx="55.4167" cy="1633.49" width="110.84" height="28.5757"/>
			<rect x="0" y="1619.2" width="110.833" height="28.5757" class="st10"/>
			<text x="43.42" y="1637.09" class="st2" v:langID="2052"><v:paragraph v:horizAlign="1"/><v:tabList/>AH01</text>		</g>
		<g id="shape112-281" v:mID="112" v:groupContext="shape" transform="translate(448.304,-1298.66)">
			<title>工作表.112</title>
			<desc>AH02</desc>
			<v:textBlock v:margins="rect(4,4,4,4)" v:tabSpace="42.5197"/>
			<v:textRect cx="55.4167" cy="1633.49" width="110.84" height="28.5757"/>
			<rect x="0" y="1619.2" width="110.833" height="28.5757" class="st10"/>
			<text x="43.42" y="1637.09" class="st2" v:langID="2052"><v:paragraph v:horizAlign="1"/><v:tabList/>AH02</text>		</g>
		<g id="shape113-284" v:mID="113" v:groupContext="shape" transform="translate(562.832,-1296.1)">
			<title>工作表.113</title>
			<desc>AH03</desc>
			<v:textBlock v:margins="rect(4,4,4,4)" v:tabSpace="42.5197"/>
			<v:textRect cx="55.4167" cy="1633.49" width="110.84" height="28.5757"/>
			<rect x="0" y="1619.2" width="110.833" height="28.5757" class="st10"/>
			<text x="43.42" y="1637.09" class="st2" v:langID="2052"><v:paragraph v:horizAlign="1"/><v:tabList/>AH03</text>		</g>
		<g id="shape114-287" v:mID="114" v:groupContext="shape" transform="translate(751.776,-1296.1)">
			<title>工作表.114</title>
			<desc>AH04</desc>
			<v:textBlock v:margins="rect(4,4,4,4)" v:tabSpace="42.5197"/>
			<v:textRect cx="55.4167" cy="1633.49" width="110.84" height="28.5757"/>
			<rect x="0" y="1619.2" width="110.833" height="28.5757" class="st10"/>
			<text x="43.42" y="1637.09" class="st2" v:langID="2052"><v:paragraph v:horizAlign="1"/><v:tabList/>AH04</text>		</g>
		<g id="shape115-290" v:mID="115" v:groupContext="shape" transform="translate(937.158,-1291.85)">
			<title>工作表.115</title>
			<desc>AH05</desc>
			<v:textBlock v:margins="rect(4,4,4,4)" v:tabSpace="42.5197"/>
			<v:textRect cx="55.4167" cy="1633.49" width="110.84" height="28.5757"/>
			<rect x="0" y="1619.2" width="110.833" height="28.5757" class="st10"/>
			<text x="43.42" y="1637.09" class="st2" v:langID="2052"><v:paragraph v:horizAlign="1"/><v:tabList/>AH05</text>		</g>
		<g id="shape116-293" v:mID="116" v:groupContext="shape" transform="translate(1082.3,-1291.85)">
			<title>工作表.116</title>
			<desc>AH06</desc>
			<v:textBlock v:margins="rect(4,4,4,4)" v:tabSpace="42.5197"/>
			<v:textRect cx="55.4167" cy="1633.49" width="110.84" height="28.5757"/>
			<rect x="0" y="1619.2" width="110.833" height="28.5757" class="st10"/>
			<text x="43.42" y="1637.09" class="st2" v:langID="2052"><v:paragraph v:horizAlign="1"/><v:tabList/>AH06</text>		</g>
		<g id="shape117-296" v:mID="117" v:groupContext="shape" transform="translate(1241.29,-1289.3)">
			<title>工作表.117</title>
			<desc>AH07</desc>
			<v:textBlock v:margins="rect(4,4,4,4)" v:tabSpace="42.5197"/>
			<v:textRect cx="55.4167" cy="1633.49" width="110.84" height="28.5757"/>
			<rect x="0" y="1619.2" width="110.833" height="28.5757" class="st10"/>
			<text x="43.42" y="1637.09" class="st2" v:langID="2052"><v:paragraph v:horizAlign="1"/><v:tabList/>AH07</text>		</g>
		<g id="shape118-299" v:mID="118" v:groupContext="shape" transform="translate(1357.14,-1287.77)">
			<title>工作表.118</title>
			<desc>AH08</desc>
			<v:textBlock v:margins="rect(4,4,4,4)" v:tabSpace="42.5197"/>
			<v:textRect cx="55.4167" cy="1633.49" width="110.84" height="28.5757"/>
			<rect x="0" y="1619.2" width="110.833" height="28.5757" class="st10"/>
			<text x="43.42" y="1637.09" class="st2" v:langID="2052"><v:paragraph v:horizAlign="1"/><v:tabList/>AH08</text>		</g>
		<g id="shape119-302" v:mID="119" v:groupContext="shape" transform="translate(2446.32,373.346) rotate(90)">
			<title>工作表.119</title>
			<path d="M0 1647.78 L686.77 1647.78" class="st3"/>
		</g>
		<g id="shape120-305" v:mID="120" v:groupContext="shape" transform="translate(1130.3,-914.38)">
			<title>工作表.120</title>
			<path d="M0 1287.73 L1.48 1647.78 L164.03 1645.87 L165.51 1288.68" class="st3"/>
		</g>
		<g id="shape121-308" v:mID="121" v:groupContext="shape" transform="translate(503.721,-916.285)">
			<title>工作表.121</title>
			<path d="M0 1281.06 L0 1647.78 L110.83 1647.78 L110.83 1290.58" class="st3"/>
		</g>
		<g id="shape130-311" v:mID="130" v:groupContext="shape" transform="translate(56.6929,-111.402)">
			<title>工作表.130</title>
			<path d="M3.69 357.11 L1559.06 357.11 L1555.36 1643.02 L11.08 1647.78 L2.22 1647.78 L0 352.35" class="st11"/>
		</g>
		<g id="shape131-314" v:mID="131" v:groupContext="shape" transform="translate(319.368,-963.911)">
			<title>工作表.131</title>
			<path d="M0 1585.87 L18.1 1585.87 L18.1 1647.78 L0.37 1647.78 L0 1585.87 Z" class="st12"/>
		</g>
		<g id="shape132-316" v:mID="132" v:groupContext="shape" transform="translate(324.171,-873.421)">
			<title>工作表.132</title>
			<path d="M0 1647.78 L8.13 1647.78" class="st4"/>
		</g>
		<g id="shape133-319" v:mID="133" v:groupContext="shape" transform="translate(2067.16,663.378) rotate(89.3537)">
			<title>工作表.133</title>
			<path d="M0 1647.78 L53.81 1647.78" class="st3"/>
		</g>
		<g id="shape134-322" v:mID="134" v:groupContext="shape" transform="translate(744.229,-686.25)">
			<title>工作表.134</title>
			<path d="M0 1585.87 L18.1 1585.87 L18.1 1647.78 L0.37 1647.78 L0 1585.87 Z" class="st12"/>
		</g>
		<g id="shape135-324" v:mID="135" v:groupContext="shape" transform="translate(934.826,-689.83)">
			<title>工作表.135</title>
			<path d="M0 1585.87 L18.1 1585.87 L18.1 1647.78 L0.37 1647.78 L0 1585.87 Z" class="st12"/>
		</g>
		<g id="shape136-326" v:mID="136" v:groupContext="shape" transform="translate(1360.28,-964.833)">
			<title>工作表.136</title>
			<path d="M0 1585.87 L18.1 1585.87 L18.1 1647.78 L0.37 1647.78 L0 1585.87 Z" class="st12"/>
		</g>
		<g id="shape137-328" v:mID="137" v:groupContext="shape" transform="translate(2400.82,977.655) rotate(90.4779)">
			<title>工作表.137</title>
			<path d="M0 1647.78 L44.29 1647.78" class="st3"/>
		</g>
		<g id="shape138-331" v:mID="138" v:groupContext="shape" transform="translate(2491.33,981.941) rotate(90.4779)">
			<title>工作表.138</title>
			<path d="M0 1647.78 L44.29 1647.78" class="st3"/>
		</g>
		<g id="shape139-334" v:mID="139" v:groupContext="shape" transform="translate(2490.65,1019.16) rotate(90)">
			<title>工作表.139</title>
			<path d="M0 1647.78 L23.81 1647.78" class="st4"/>
		</g>
		<g id="shape140-337" v:mID="140" v:groupContext="shape" transform="translate(828.093,-601.952)">
			<title>工作表.140</title>
			<path d="M0 1647.78 L30.29 1647.78" class="st4"/>
		</g>
		<g id="shape141-340" v:mID="141" v:groupContext="shape" transform="translate(835.482,-587.664)">
			<title>工作表.141</title>
			<path d="M0 1647.78 L15.52 1647.78" class="st4"/>
		</g>
		<g id="shape142-343" v:mID="142" v:groupContext="shape" transform="translate(839.176,-575.281)">
			<title>工作表.142</title>
		</g>
		<g id="shape143-344" v:mID="143" v:groupContext="shape" transform="translate(839.176,-575.281)">
			<title>工作表.143</title>
		</g>
		<g id="shape144-345" v:mID="144" v:groupContext="shape" transform="translate(808.404,-578.831) rotate(-1.01868)">
			<title>工作表.144</title>
			<path d="M0 1647.78 L10.72 1647.78" class="st4"/>
		</g>
		<g id="shape145-348" v:mID="145" v:groupContext="shape" transform="translate(2682.15,948.355) rotate(89.3266)">
			<title>工作表.145</title>
			<path d="M0 1647.78 L41.91 1647.78" class="st3"/>
		</g>
		<g id="shape146-351" v:mID="146" v:groupContext="shape" transform="translate(2682.02,1018.2) rotate(90)">
			<title>工作表.146</title>
			<path d="M0 1647.78 L23.81 1647.78" class="st4"/>
		</g>
		<g id="shape147-354" v:mID="147" v:groupContext="shape" transform="translate(1020.2,-600.999)">
			<title>工作表.147</title>
			<path d="M0 1647.78 L30.29 1647.78" class="st4"/>
		</g>
		<g id="shape148-357" v:mID="148" v:groupContext="shape" transform="translate(1027.59,-586.711)">
			<title>工作表.148</title>
			<path d="M0 1647.78 L15.52 1647.78" class="st4"/>
		</g>
		<g id="shape149-360" v:mID="149" v:groupContext="shape" transform="translate(1031.29,-574.328)">
			<title>工作表.149</title>
		</g>
		<g id="shape150-361" v:mID="150" v:groupContext="shape" transform="translate(1031.29,-574.328)">
			<title>工作表.150</title>
		</g>
		<g id="shape151-362" v:mID="151" v:groupContext="shape" transform="translate(1029.81,-578.138)">
			<title>工作表.151</title>
			<path d="M0 1647.78 L10.71 1647.78" class="st4"/>
		</g>
		<g id="shape152-365" v:mID="152" v:groupContext="shape" transform="translate(1442.11,-968.166)">
			<title>工作表.152</title>
			<rect x="0" y="1592.53" width="44.3333" height="55.2464" class="st5"/>
		</g>
		<g id="shape153-367" v:mID="153" v:groupContext="shape" transform="translate(3110.21,680.059) rotate(90)">
			<title>工作表.153</title>
			<path d="M0 1647.78 L49.53 1647.78" class="st3"/>
		</g>
		<g id="shape154-370" v:mID="154" v:groupContext="shape" transform="translate(3110.21,738.593) rotate(90)">
			<title>工作表.154</title>
			<path d="M0 1647.78 L23.81 1647.78" class="st4"/>
		</g>
		<g id="shape155-373" v:mID="155" v:groupContext="shape" transform="translate(1447.65,-875.848)">
			<title>工作表.155</title>
			<path d="M0 1647.78 L30.29 1647.78" class="st4"/>
		</g>
		<g id="shape156-376" v:mID="156" v:groupContext="shape" transform="translate(1455.04,-861.561)">
			<title>工作表.156</title>
			<path d="M0 1647.78 L15.52 1647.78" class="st4"/>
		</g>
		<g id="shape157-379" v:mID="157" v:groupContext="shape" transform="translate(1458.73,-849.178)">
			<title>工作表.157</title>
		</g>
		<g id="shape158-380" v:mID="158" v:groupContext="shape" transform="translate(1458.73,-849.178)">
			<title>工作表.158</title>
		</g>
		<g id="shape159-381" v:mID="159" v:groupContext="shape" transform="translate(1533.04,-851.244) rotate(2.63606)">
			<title>工作表.159</title>
			<path d="M0 1647.78 L10.36 1647.78" class="st4"/>
		</g>
	</g>
</svg>
